%{
/*
=======================================================================
 Author      : Bigeon, Emmanuel
 Version     :
 Copyright   : GPL3
 Description : Lexer for the AMPL-like grammar (Generated by bison from
             alpi.ll)
=======================================================================
 */
/* -*- C++ -*- */
#include <cerrno>
#include <climits>
#include <cstdlib>
#include <cstring>
#include "../yy_src/alpi.tab.hh"
#include "../driver/driver.hh"

#undef yywrap
#define yywrap() 1

static yy::location loc;
%}

%option noyywrap nounput batch debug noinput

blank           [ \t\r]+
numeral         [0-9]
natural         {numeral}+
exponant        [eEdD][+-]?{natural}
real            {natural}("."{natural}?)?{exponant}?
letter          [A-Za-z]
boolean         (".false."|".true.")
ident           {letter}(_|{letter}|{numeral})*
eol             [\n]
comment         ("#"[^\n]*)
filename        {ident}("."{ident})*"."{letter}*

%{
#define YY_USER_ACTION loc.columns (yyleng);
%}
%%
%{
  loc.step();
%}


{blank}+        { loc.step(); }
{eol}+          { loc.lines(yyleng);
                  loc.step(); }
{comment}       { /* Ignored */ }
{natural}       { errno = 0;
                  long n = strtol(yytext, NULL, 10);
                  if (! (INT_MIN <= n && n <= INT_MAX && errno != ERANGE)) {
                    driver.error(loc, "integer is out of range");
                  }
                  return yy::alpiparser::make_NATURAL(yytext, loc); }
{real}          return yy::alpiparser::make_NUMBER(yytext, loc);
".."            return yy::alpiparser::make_SPAN(loc);
"by"            return yy::alpiparser::make_BY(loc);
{boolean}       return yy::alpiparser::make_BOOLEAN(loc);
"["             return yy::alpiparser::make_OP_BRACK(loc);
"]"             return yy::alpiparser::make_CL_BRACK(loc);
"("             return yy::alpiparser::make_OP_PAREN(loc);
")"             return yy::alpiparser::make_CL_PAREN(loc);
"{"             return yy::alpiparser::make_OP_BRACE(loc);
"}"             return yy::alpiparser::make_CL_BRACE(loc);

"="            return yy::alpiparser::make_EQ(loc);
"<="            return yy::alpiparser::make_LEQ(loc);
">="            return yy::alpiparser::make_GEQ(loc);
"<"             return yy::alpiparser::make_LT(loc);
">"             return yy::alpiparser::make_GT(loc);
"||"            return yy::alpiparser::make_OR(loc);
"&&"            return yy::alpiparser::make_AND(loc);
"prec"          return yy::alpiparser::make_PREC(loc);

"+"             return yy::alpiparser::make_PLUS(loc);
"-"             return yy::alpiparser::make_MINUS(loc);
"*"             return yy::alpiparser::make_TIMES(loc);
"/"             return yy::alpiparser::make_DIVIDE(loc);
"**"            return yy::alpiparser::make_POWER(loc);
"^"             return yy::alpiparser::make_POWER(loc);

"sum"           return yy::alpiparser::make_SUM(loc);
"prod"          return yy::alpiparser::make_PROD(loc);
"in"            return yy::alpiparser::make_IN(loc);

":="            return yy::alpiparser::make_AFFECT(loc);

","             return yy::alpiparser::make_COMMA(loc);
";"             return yy::alpiparser::make_SEMICOLON(loc);
":"             return yy::alpiparser::make_COLON(loc);

"minimize"      return yy::alpiparser::make_MINIMIZE(loc);
"subject to"    return yy::alpiparser::make_SUBJECT_TO(loc);
"set"           return yy::alpiparser::make_SET(loc);
"var"           return yy::alpiparser::make_VAR(loc);
"param"         return yy::alpiparser::make_PARAM(loc);
"integer"       return yy::alpiparser::make_INTEGER(loc);
"option"        return yy::alpiparser::make_OPTION(loc);

"cos"           return yy::alpiparser::make_FUN(yytext, loc);
"sqrt"          return yy::alpiparser::make_FUN(yytext, loc);
"sin"           return yy::alpiparser::make_FUN(yytext, loc);

{filename}      return yy::alpiparser::make_FILENAME(yytext, loc);
{ident}         return yy::alpiparser::make_IDENT(yytext, loc);

.               driver.error(loc, "invalid character");
<<EOF>>         return yy::alpiparser::make_END(loc);
%%

namespace alpiparsertools {
  void driver::scan_begin() {
    std::cout << "starting parsing" << std::endl;
    yy_flex_debug = trace_scanning;
    if (file.empty() || file == "-") {
      yyin = stdin;
    } else if (!(yyin = fopen(file.c_str(), "r"))) {
      error("cannot open " +file+": " + strerror(errno));
      exit(EXIT_FAILURE);
    }
  }
  
  void driver::scan_end() {
    std::cout << "parsing ended" << std::endl;
    fclose(yyin);
  }
}